…
# Résultat trié dans l’ordre temporel
results_mass_Hg_total <- results_mass_Hg_total %>% arrange(Scenario, date)
results_mass_hg_total_NA<-na.omit(results_mass_Hg_total)
print(results_mass_hg_total_NA)
```

    ## # A tibble: 188 × 3
    ##    Scenario date       total_Hg_mass_tonnes
    ##    <chr>    <date>                    <dbl>
    ##  1 HIST_B10 2014-01-01                 327.
    ##  2 HIST_B10 2014-02-01                 858.
    ##  3 HIST_B10 2014-03-01                1300.
    ##  4 HIST_B10 2014-04-01                1691.
    ##  5 HIST_B10 2014-05-01                2033.
    ##  6 HIST_B10 2014-06-01                2352.
    ##  7 HIST_B10 2014-07-01                2619.
    ##  8 HIST_B10 2014-08-01                2843.
    ##  9 HIST_B10 2014-09-01                2998.
    ## 10 HIST_B10 2014-10-01                3125.
    ## # ℹ 178 more rows
…
    results_mass_Hg2 <- bind_rows(results_mass_Hg2, tibble(
      Scenario = basename(subdir),
      date = file_date,
      total_Hg2_mass_tonnes = total_mass_Hg_2_tonnes
    ))
  }
}

results_mass_Hg2 <- results_mass_Hg2 %>% arrange(Scenario, date)
print(results_mass_Hg2)
```

    ## # A tibble: 188 × 3
    ##    Scenario date       total_Hg2_mass_tonnes
    ##    <chr>    <date>                     <dbl>
    ##  1 HIST_B10 2014-01-01                  5.04
    ##  2 HIST_B10 2014-02-01                 16.7 
    ##  3 HIST_B10 2014-03-01                 26.0 
    ##  4 HIST_B10 2014-04-01                 32.7 
    ##  5 HIST_B10 2014-05-01                 38.3 
    ##  6 HIST_B10 2014-06-01                 45.7 
    ##  7 HIST_B10 2014-07-01                 54.6 
    ##  8 HIST_B10 2014-08-01                 62.7 
    ##  9 HIST_B10 2014-09-01                 73.1 
    ## 10 HIST_B10 2014-10-01                 84.6 
    ## # ℹ 178 more rows
…
