…
``` r
print(df_mass)
```

    ## # A tibble: 24 × 2
    ##    date       mass_tonnes
    ##    <date>           <dbl>
    ##  1 2014-01-01        325.
    ##  2 2014-02-01        850.
    ##  3 2014-03-01       1290.
    ##  4 2014-04-01       1683.
    ##  5 2014-05-01       2027.
    ##  6 2014-06-01       2346.
    ##  7 2014-07-01       2613.
    ##  8 2014-08-01       2836.
    ##  9 2014-09-01       2990.
    ## 10 2014-10-01       3114.
    ## # ℹ 14 more rows
…
